{
    "currentVersionInfo": {
        "version": "0.4.0",
        "hasShownChangelog": true
    },
    "settings": {
        "corruptionAmount": 1,
        "rampEnd": 1,
        "corruptUp": false,
        "corruptMid": true,
        "corruptDown": false
    }
}